\contentsline {section}{\tocsection {}{1}{$\infty $-Bicategories and their Gray products}}{1}{section.1}
\contentsline {subsection}{\tocsubsection {}{1.1}{Scaled simplicial sets and $\infty $-bicategories}}{1}{subsection.1.1}
\contentsline {subsection}{\tocsubsection {}{1.2}{The Gray product and lax natural transformations}}{5}{subsection.1.2}
\contentsline {section}{\tocsection {}{2}{Fibrations of scaled simplicial sets}}{15}{section.2}
\contentsline {subsection}{\tocsubsection {}{2.1}{Preliminaries}}{15}{subsection.2.1}
\contentsline {subsection}{\tocsubsection {}{2.2}{Cartesian edges}}{19}{subsection.2.2}
\contentsline {subsection}{\tocsubsection {}{2.3}{Marked-scaled simplicial sets and Outer anodyne maps}}{24}{subsection.2.3}
\contentsline {subsection}{\tocsubsection {}{2.4}{The join and slice constructions}}{26}{subsection.2.4}
\contentsline {subsection}{\tocsubsection {}{2.5}{The structure of outer (co)Cartesian fibrations}}{28}{subsection.2.5}
\contentsline {subsection}{\tocsubsection {}{2.6}{Invariance of strong slice bicategories}}{35}{subsection.2.6}
\contentsline {section}{\tocsection {}{3}{Limits and colimits in $\infty $-bicategories}}{38}{section.3}
\contentsline {subsection}{\tocsubsection {}{3.1}{The marked Gray product}}{38}{subsection.3.1}
\contentsline {subsection}{\tocsubsection {}{3.2}{The fattened join and slice constructions}}{40}{subsection.3.2}
\contentsline {subsection}{\tocsubsection {}{3.3}{Universal cones}}{45}{subsection.3.3}
\contentsline {subsection}{\tocsubsection {}{3.4}{Marked limits as weighted limits}}{47}{subsection.3.4}
\contentsline {subsection}{\tocsubsection {}{3.5}{Marked limits of $\infty $-categories}}{50}{subsection.3.5}
\contentsline {subsection}{\tocsubsection {}{3.6}{Marked colimits of $\infty $-categories}}{50}{subsection.3.6}
\contentsline {section}{\tocsection {}{}{References}}{50}{section*.2}
