\relax 
\providecommand\hyper@newdestlabel[2]{}
\providecommand\HyperFirstAtBeginDocument{\AtBeginDocument}
\HyperFirstAtBeginDocument{\ifx\hyper@anchor\@undefined
\global\let\oldcontentsline\contentsline
\gdef\contentsline#1#2#3#4{\oldcontentsline{#1}{#2}{#3}}
\global\let\oldnewlabel\newlabel
\gdef\newlabel#1#2{\newlabelxx{#1}#2}
\gdef\newlabelxx#1#2#3#4#5#6{\oldnewlabel{#1}{{#2}{#3}}}
\AtEndDocument{\ifx\hyper@anchor\@undefined
\let\contentsline\oldcontentsline
\let\newlabel\oldnewlabel
\fi}
\fi}
\global\let\hyper@last\relax 
\gdef\HyperFirstAtBeginDocument#1{#1}
\providecommand\HyField@AuxAddToFields[1]{}
\providecommand\HyField@AuxAddToCoFields[2]{}
\citation{LurieGoodwillie}
\@writefile{toc}{\contentsline {section}{\tocsection {}{1}{$\infty $-Bicategories and their Gray products}}{1}{section.1}}
\newlabel{s:scaled}{{1.1}{1}{Scaled simplicial sets and $\infty $-bicategories}{subsection.1.1}{}}
\@writefile{toc}{\contentsline {subsection}{\tocsubsection {}{1.1}{Scaled simplicial sets and $\infty $-bicategories}}{1}{subsection.1.1}}
\citation{HTT}
\citation{HTT}
\citation{LurieGoodwillie}
\citation{LurieGoodwillie}
\citation{LurieGoodwillie}
\citation{GagnaHarpazLanariEquiv}
\citation{GagnaHarpazLanariEquiv}
\citation{GagnaHarpazLanariEquiv}
\citation{GagnaHarpazLanariEquiv}
\citation{GagnaHarpazLanariEquiv}
\newlabel{e:adj}{{1.1}{2}{Scaled simplicial sets and $\infty $-bicategories}{equation.1.1}{}}
\citation{unicity}
\citation{LurieGoodwillie}
\citation{LurieGoodwillie}
\citation{LurieGoodwillie}
\citation{GagnaHarpazLanariEquiv}
\newlabel{n:op}{{1.1.3}{3}{}{thm.1.1.3}{}}
\newlabel{d:anodyne}{{1.1.4}{3}{}{thm.1.1.4}{}}
\citation{LurieGoodwillie}
\citation{LurieGoodwillie}
\citation{LurieGoodwillie}
\citation{LurieGoodwillie}
\newlabel{d:thi}{{1.1.6}{4}{}{thm.1.1.6}{}}
\newlabel{d:equivalence}{{1.1.7}{4}{}{thm.1.1.7}{}}
\newlabel{r:dwyer-kan}{{1.1.8}{4}{}{thm.1.1.8}{}}
\newlabel{r:underlying}{{1.1.9}{4}{}{thm.1.1.9}{}}
\newlabel{l:test-GagnaHarpazLanariEquiv}{{1.1.10}{5}{}{thm.1.1.10}{}}
\newlabel{e:f-map}{{1.2}{5}{}{equation.1.2}{}}
\@writefile{toc}{\contentsline {subsection}{\tocsubsection {}{1.2}{The Gray product and lax natural transformations}}{5}{subsection.1.2}}
\newlabel{d:gray}{{1.2.1}{5}{}{thm.1.2.1}{}}
\newlabel{r:unit}{{1.2.3}{6}{}{thm.1.2.3}{}}
\newlabel{r:symmetric}{{1.2.4}{6}{}{thm.1.2.4}{}}
\newlabel{ex:lax-square}{{1.2.5}{6}{}{thm.1.2.5}{}}
\citation{LurieGoodwillie}
\newlabel{e:square}{{1.3}{7}{The Gray product and lax natural transformations}{equation.1.3}{}}
\newlabel{r:assoc}{{1.2.6}{7}{}{thm.1.2.6}{}}
\newlabel{p:variants}{{1.2.7}{7}{}{thm.1.2.7}{}}
\newlabel{l:lem-1}{{1.2.8}{7}{}{thm.1.2.8}{}}
\citation{LurieGoodwillie}
\newlabel{l:lem-2}{{1.2.9}{8}{}{thm.1.2.9}{}}
\newlabel{c:kan-gray}{{1.2.10}{8}{}{thm.1.2.10}{}}
\newlabel{e:kan-gray-1}{{1.4}{8}{}{equation.1.4}{}}
\newlabel{e:kan-gray-2}{{1.5}{8}{}{equation.1.5}{}}
\newlabel{e:kan-gray-3}{{1.6}{8}{The Gray product and lax natural transformations}{equation.1.6}{}}
\newlabel{c:filt}{{1.2.11}{9}{}{thm.1.2.11}{}}
\newlabel{e:filt-01}{{1.7}{10}{}{equation.1.7}{}}
\newlabel{e:filt-02}{{1.8}{10}{}{equation.1.8}{}}
\newlabel{v:filt}{{1.2.12}{10}{}{thm.1.2.12}{}}
\newlabel{e:filt-01-var}{{1.9}{10}{}{equation.1.9}{}}
\newlabel{e:filt-02-var}{{1.10}{10}{}{equation.1.10}{}}
\newlabel{c:useful}{{1.2.13}{10}{}{thm.1.2.13}{}}
\newlabel{e:homotopy}{{1.11}{10}{}{equation.1.11}{}}
\citation{LurieGoodwillie}
\newlabel{p:push-prod}{{1.2.14}{11}{}{thm.1.2.14}{}}
\citation{LurieGoodwillie}
\newlabel{c:map}{{1.2.15}{14}{}{thm.1.2.15}{}}
\newlabel{r:associate}{{1.2.17}{14}{}{thm.1.2.17}{}}
\citation{LurieGoodwillie}
\@writefile{toc}{\contentsline {section}{\tocsection {}{2}{Fibrations of scaled simplicial sets}}{15}{section.2}}
\newlabel{s:fibrations}{{2}{15}{Fibrations of scaled simplicial sets}{section.2}{}}
\newlabel{s:prelim}{{2.1}{15}{Preliminaries}{subsection.2.1}{}}
\@writefile{toc}{\contentsline {subsection}{\tocsubsection {}{2.1}{Preliminaries}}{15}{subsection.2.1}}
\newlabel{d:weak}{{2.1.1}{15}{}{thm.2.1.1}{}}
\newlabel{d:cartesian}{{2.1.3}{15}{}{thm.2.1.3}{}}
\citation{LurieGoodwillie}
\citation{LurieGoodwillie}
\citation{LurieGoodwillie}
\newlabel{r:iso}{{2.1.5}{16}{}{thm.2.1.5}{}}
\newlabel{r:cart-GagnaHarpazLanariEquiv}{{2.1.6}{16}{}{thm.2.1.6}{}}
\citation{HTT}
\newlabel{p:inner-fibred}{{2.1.7}{17}{}{thm.2.1.7}{}}
\newlabel{e:under}{{2.1}{18}{Preliminaries}{equation.2.1}{}}
\citation{LurieGoodwillie}
\citation{LurieGoodwillie}
\citation{LurieGoodwillie}
\citation{LurieGoodwillie}
\@writefile{toc}{\contentsline {subsection}{\tocsubsection {}{2.2}{Cartesian edges}}{19}{subsection.2.2}}
\newlabel{p:weak-to-strong}{{2.2.2}{20}{}{thm.2.2.2}{}}
\newlabel{l:technical}{{2.2.3}{20}{}{thm.2.2.3}{}}
\newlabel{e:problem}{{2.2}{21}{Cartesian edges}{equation.2.2}{}}
\newlabel{e:J}{{2.3}{21}{Cartesian edges}{equation.2.3}{}}
\newlabel{c:2-out-of-3}{{2.2.4}{23}{}{thm.2.2.4}{}}
\citation{LurieGoodwillie}
\newlabel{s:fib-1}{{2.3}{24}{Marked-scaled simplicial sets and Outer anodyne maps}{subsection.2.3}{}}
\@writefile{toc}{\contentsline {subsection}{\tocsubsection {}{2.3}{Marked-scaled simplicial sets and Outer anodyne maps}}{24}{subsection.2.3}}
\newlabel{d:marked-weak}{{2.3.3}{24}{}{thm.2.3.3}{}}
\newlabel{d:C0}{{2.3.4}{24}{}{thm.2.3.4}{}}
\newlabel{d:anodyne-marked}{{2.3.6}{25}{}{thm.2.3.6}{}}
\newlabel{p:char}{{2.3.7}{25}{}{thm.2.3.7}{}}
\citation{LurieGoodwillie}
\newlabel{s:slice}{{2.4}{26}{The join and slice constructions}{subsection.2.4}{}}
\@writefile{toc}{\contentsline {subsection}{\tocsubsection {}{2.4}{The join and slice constructions}}{26}{subsection.2.4}}
\newlabel{d:join}{{2.4.1}{26}{}{thm.2.4.1}{}}
\newlabel{l:pushout-join}{{2.4.2}{26}{}{thm.2.4.2}{}}
\newlabel{e:pushout-join}{{2.4}{26}{}{equation.2.4}{}}
\citation{LurieGoodwillie}
\newlabel{c:slice}{{2.4.3}{27}{}{thm.2.4.3}{}}
\newlabel{c:slice-2}{{2.4.4}{28}{}{thm.2.4.4}{}}
\newlabel{c:slice-3}{{2.4.5}{28}{}{thm.2.4.5}{}}
\@writefile{toc}{\contentsline {subsection}{\tocsubsection {}{2.5}{The structure of outer (co)Cartesian fibrations}}{28}{subsection.2.5}}
\newlabel{p:joyal}{{2.5.1}{28}{}{thm.2.5.1}{}}
\newlabel{e:weak-problem}{{2.5}{28}{The structure of outer (co)Cartesian fibrations}{equation.2.5}{}}
\newlabel{e:weak-problem-2}{{2.6}{28}{The structure of outer (co)Cartesian fibrations}{equation.2.6}{}}
\newlabel{p:char-conv}{{2.5.2}{29}{}{thm.2.5.2}{}}
\newlabel{p:mapping-1}{{2.5.3}{29}{}{thm.2.5.3}{}}
\newlabel{e:diagram1}{{2.7}{30}{The structure of outer (co)Cartesian fibrations}{equation.2.7}{}}
\newlabel{e:diagram2}{{2.8}{30}{The structure of outer (co)Cartesian fibrations}{equation.2.8}{}}
\newlabel{e:extension}{{2.9}{30}{The structure of outer (co)Cartesian fibrations}{equation.2.9}{}}
\newlabel{e:extension-2}{{2.10}{31}{The structure of outer (co)Cartesian fibrations}{equation.2.10}{}}
\newlabel{e:filt}{{2.11}{32}{The structure of outer (co)Cartesian fibrations}{equation.2.11}{}}
\newlabel{p:mapping-2}{{2.5.4}{32}{}{thm.2.5.4}{}}
\citation{HTT}
\newlabel{e:local}{{2.12}{33}{The structure of outer (co)Cartesian fibrations}{equation.2.12}{}}
\newlabel{e:rectangle}{{2.13}{33}{The structure of outer (co)Cartesian fibrations}{equation.2.13}{}}
\newlabel{p:fiberwise}{{2.5.5}{33}{}{thm.2.5.5}{}}
\citation{HTT}
\citation{HTT}
\newlabel{e:diag-oo}{{2.14}{34}{The structure of outer (co)Cartesian fibrations}{equation.2.14}{}}
\newlabel{e:diag-oo-2}{{2.15}{34}{The structure of outer (co)Cartesian fibrations}{equation.2.15}{}}
\newlabel{d:outer-enriched}{{2.5.6}{34}{}{thm.2.5.6}{}}
\newlabel{e:cart-enriched}{{2.16}{34}{}{equation.2.16}{}}
\newlabel{p:outer-cart}{{2.5.7}{34}{}{thm.2.5.7}{}}
\citation{LurieGoodwillie}
\@writefile{toc}{\contentsline {subsection}{\tocsubsection {}{2.6}{Invariance of strong slice bicategories}}{35}{subsection.2.6}}
\newlabel{p:over-cat}{{2.6.1}{35}{Invariance of strong over categories}{thm.2.6.1}{}}
\newlabel{e:slice}{{2.17}{35}{Invariance of strong over categories}{equation.2.17}{}}
\newlabel{l:detects}{{2.6.2}{35}{}{thm.2.6.2}{}}
\newlabel{e:f}{{2.18}{35}{Invariance of strong slice bicategories}{equation.2.18}{}}
\citation{LurieGoodwillie}
\citation{GagnaHarpazLanariEquiv}
\citation{GagnaHarpazLanariEquiv}
\newlabel{l:joyal-2}{{2.6.3}{36}{}{thm.2.6.3}{}}
\newlabel{e:square-map}{{2.19}{36}{Invariance of strong slice bicategories}{equation.2.19}{}}
\newlabel{c:joyal-2}{{2.6.4}{36}{}{thm.2.6.4}{}}
\newlabel{e:ind-x}{{2.20}{37}{Invariance of strong slice bicategories}{equation.2.20}{}}
\newlabel{e:match}{{2.21}{37}{Invariance of strong slice bicategories}{equation.2.21}{}}
\@writefile{toc}{\contentsline {section}{\tocsection {}{3}{Limits and colimits in $\infty $-bicategories}}{38}{section.3}}
\newlabel{s:limits}{{3}{38}{Limits and colimits in $\infty $-bicategories}{section.3}{}}
\@writefile{toc}{\contentsline {subsection}{\tocsubsection {}{3.1}{The marked Gray product}}{38}{subsection.3.1}}
\newlabel{p:marked-variants}{{3.1.4}{39}{}{thm.3.1.4}{}}
\newlabel{d:marked-scaled}{{3.1.5}{39}{}{thm.3.1.5}{}}
\newlabel{p:push-prod-2}{{3.1.6}{39}{}{thm.3.1.6}{}}
\newlabel{l:useful}{{3.1.7}{39}{}{thm.3.1.7}{}}
\citation{LurieGoodwillie}
\citation{LurieGoodwillie}
\citation{HTT}
\citation{HTT}
\citation{HTT}
\citation{HTT}
\newlabel{c:map-3}{{3.1.8}{40}{}{thm.3.1.8}{}}
\newlabel{s:fat-join}{{3.2}{40}{The fattened join and slice constructions}{subsection.3.2}{}}
\@writefile{toc}{\contentsline {subsection}{\tocsubsection {}{3.2}{The fattened join and slice constructions}}{40}{subsection.3.2}}
\newlabel{d:fat-join}{{3.2.1}{41}{}{thm.3.2.1}{}}
\citation{LurieGoodwillie}
\citation{LurieGoodwillie}
\citation{GagnaHarpazLanariEquiv}
\citation{CisinskiPrefaisceaux}
\newlabel{r:mapping-space}{{3.2.3}{42}{}{thm.3.2.3}{}}
\newlabel{r:slice}{{3.2.4}{42}{}{thm.3.2.4}{}}
\newlabel{prop:join eq}{{3.2.5}{42}{}{thm.3.2.5}{}}
\newlabel{lem: pointwise eq}{{3.2.6}{42}{}{thm.3.2.6}{}}
\newlabel{c:outer-slice}{{3.2.7}{43}{}{thm.3.2.7}{}}
\citation{LurieGoodwillie}
\citation{LurieGoodwillie}
\newlabel{p:cocar}{{3.2.8}{44}{}{thm.3.2.8}{}}
\newlabel{l:fiber}{{3.2.9}{45}{}{thm.3.2.9}{}}
\@writefile{toc}{\contentsline {subsection}{\tocsubsection {}{3.3}{Universal cones}}{45}{subsection.3.3}}
\newlabel{d:cone}{{3.3.1}{45}{}{thm.3.3.1}{}}
\newlabel{d:limit}{{3.3.2}{45}{}{thm.3.3.2}{}}
\citation{LurieGoodwillie}
\newlabel{l:anodyne}{{3.3.3}{46}{}{thm.3.3.3}{}}
\newlabel{e:fat-cone}{{3.1}{46}{Universal cones}{equation.3.1}{}}
\newlabel{c:cone-point}{{3.3.4}{46}{}{thm.3.3.4}{}}
\newlabel{r:represents}{{3.3.5}{46}{}{thm.3.3.5}{}}
\newlabel{e:zig-zag}{{3.2}{47}{}{equation.3.2}{}}
\@writefile{toc}{\contentsline {subsection}{\tocsubsection {}{3.4}{Marked limits as weighted limits}}{47}{subsection.3.4}}
\newlabel{d:weighted}{{3.4.1}{47}{}{thm.3.4.1}{}}
\newlabel{e:composed}{{3.3}{48}{}{equation.3.3}{}}
\newlabel{r:cone}{{3.4.2}{48}{}{thm.3.4.2}{}}
\newlabel{l:weighted}{{3.4.3}{48}{}{thm.3.4.3}{}}
\newlabel{p:weighted}{{3.4.4}{49}{}{thm.3.4.4}{}}
\newlabel{e:slice}{{3.4}{49}{Marked limits as weighted limits}{equation.3.4}{}}
\newlabel{e:slice-1}{{3.5}{49}{Marked limits as weighted limits}{equation.3.5}{}}
\newlabel{e:slice-2}{{3.6}{49}{Marked limits as weighted limits}{equation.3.6}{}}
\citation{HTT}
\citation{HTT}
\citation{LurieGoodwillie}
\bibstyle{amsplain}
\bibdata{biblio}
\bibcite{BarwickSchommerPriesUnicity}{1}
\bibcite{CisinskiPrefaisceaux}{2}
\bibcite{GagnaHarpazLanariEquiv}{3}
\bibcite{LurieGoodwillie}{4}
\@writefile{toc}{\contentsline {subsection}{\tocsubsection {}{3.5}{Marked limits of $\infty $-categories}}{50}{subsection.3.5}}
\newlabel{t:comp}{{3.5.1}{50}{cf.~\cite [Corollary 3.3.3.2]{HTT}}{thm.3.5.1}{}}
\newlabel{e:zig-zag-cat}{{3.7}{50}{Marked limits of $\infty $-categories}{equation.3.7}{}}
\newlabel{e:zig-zag-cat-2}{{3.8}{50}{Marked limits of $\infty $-categories}{equation.3.8}{}}
\@writefile{toc}{\contentsline {subsection}{\tocsubsection {}{3.6}{Marked colimits of $\infty $-categories}}{50}{subsection.3.6}}
\@writefile{toc}{\contentsline {section}{\tocsection {}{}{References}}{50}{section*.2}}
\bibcite{HTT}{5}
\newlabel{tocindent-1}{0pt}
\newlabel{tocindent0}{11.49994pt}
\newlabel{tocindent1}{17.24991pt}
\newlabel{tocindent2}{44.59427pt}
\newlabel{tocindent3}{0pt}
